{
	"type": "minecraft:crafting_shaped",
	
	"pattern":
	[
		" II",
		"SSI",
		" II"
	],
	
	"key":
	{
		"I": { "item": "minecraft:iron_ingot" },
		"S": { "item": "minecraft:stick" }	
	},
	
	"result": { "item": "grizzlymod:forge_hammer" }
}