{
	"type": "minecraft:crafting_shaped",
	
	"pattern":
	[
		"I I",
		"III",
		"III"
	],
	
	"key":
	{
		"I": { "item": "grizzlymod:uranium_ingot" }
	},
	
	"result": { "item": "grizzlymod:uranium_chestplate" }
}